IODS course project
…
summarise(group_by(alc, sex,high_use), count=n(), mean_grade=mean(G3))

## # A tibble: 4 x 4
## # Groups:   sex [?]
##      sex high_use count mean_grade
##   <fctr>    <lgl> <int>      <dbl>
## 1      F    FALSE   157   9.687898
## 2      F     TRUE    41  10.414634
## 3      M    FALSE   113  11.610619
## 4      M     TRUE    71   9.971831

summarise(group_by(alc, absences,high_use), count=n(), mean_grade=mean(G3))

## # A tibble: 48 x 4
## # Groups:   absences [?]
##    absences high_use count mean_grade
##       <int>    <lgl> <int>      <dbl>
##  1        0    FALSE    94   8.372340
##  2        0     TRUE    22   8.318182
##  3        1    FALSE     2  12.000000
##  4        1     TRUE     1  15.000000
##  5        2    FALSE    54  12.296296
##  6        2     TRUE    13  11.076923
##  7        3    FALSE     2  11.000000
##  8        3     TRUE     4  13.000000
##  9        4    FALSE    36  11.666667
## 10        4     TRUE    15  10.200000
## # ... with 38 more rows
…
